Muchos modelos
…
]

---

# Gapminder

- ¿Cómo la esperanza de vida (`esperanza_de_vida`) cambia a través del tiempo (`anio`) para cada país (`pais`)?

```r
datos::paises
```

```
## # A tibble: 1,704 x 6
##    pais       continente  anio esperanza_de_vida poblacion pib_per_capita
##    <fct>      <fct>      <int>             <dbl>     <int>          <dbl>
##  1 Afganistán Asia        1952              28.8   8425333           779.
##  2 Afganistán Asia        1957              30.3   9240934           821.
##  3 Afganistán Asia        1962              32.0  10267083           853.
##  4 Afganistán Asia        1967              34.0  11537966           836.
##  5 Afganistán Asia        1972              36.1  13079460           740.
##  6 Afganistán Asia        1977              38.4  14880372           786.
##  7 Afganistán Asia        1982              39.9  12881816           978.
##  8 Afganistán Asia        1987              40.8  13867957           852.
##  9 Afganistán Asia        1992              41.7  16317921           649.
## 10 Afganistán Asia        1997              41.8  22227415           635.
## # … with 1,694 more rows
```
…
---

# Gapminder

- También podemos revisar el modelo utilizando como métrica el `\(R^2\)`

```r
r_cuadrado %>% 
  arrange(r_2) %>% 
  select(pais, continente, r_2)
```

```
## # A tibble: 142 x 3
##    pais                            continente    r_2
##    <fct>                           <fct>       <dbl>
##  1 Ruanda                          África     0.0172
##  2 Botswana                        África     0.0340
##  3 Zimbabue                        África     0.0562
##  4 Zambia                          África     0.0598
##  5 Swazilandia                     África     0.0682
##  6 Lesoto                          África     0.0849
##  7 Costa de Marfil                 África     0.283 
##  8 Sudáfrica                       África     0.312 
##  9 Uganda                          África     0.342 
## 10 República Democrática del Congo África     0.348 
## # … with 132 more rows
```
…
---

# Creando columnas-lista

- Anidación

```r
paises %>% 
* # Nombrar la variable que continene la anidación
* nest(data = anio:pib_per_capita)
```

```
## # A tibble: 142 x 3
##    pais       continente data             
##    <fct>      <fct>      <list>           
##  1 Afganistán Asia       <tibble [12 × 4]>
##  2 Albania    Europa     <tibble [12 × 4]>
##  3 Argelia    África     <tibble [12 × 4]>
##  4 Angola     África     <tibble [12 × 4]>
##  5 Argentina  Américas   <tibble [12 × 4]>
##  6 Australia  Oceanía    <tibble [12 × 4]>
##  7 Austria    Europa     <tibble [12 × 4]>
##  8 Baréin     Asia       <tibble [12 × 4]>
##  9 Bangladesh Asia       <tibble [12 × 4]>
## 10 Bélgica    Europa     <tibble [12 × 4]>
## # … with 132 more rows
```
…
---

# Simplificando columnas-lista

- Lista a vector

```r
por_pais %>% 
* mutate(r_2 = map_dbl(modelo,
                   .f = ~ broom::glance(.)$r.squared))
```

```
## # A tibble: 142 x 6
##    pais       continente data              modelo residuos     r_2
##    <fct>      <fct>      <list>            <list> <list>     <dbl>
##  1 Afganistán Asia       <tibble [12 × 4]> <lm>   <dbl [12]> 0.948
##  2 Albania    Europa     <tibble [12 × 4]> <lm>   <dbl [12]> 0.911
##  3 Argelia    África     <tibble [12 × 4]> <lm>   <dbl [12]> 0.985
##  4 Angola     África     <tibble [12 × 4]> <lm>   <dbl [12]> 0.888
##  5 Argentina  Américas   <tibble [12 × 4]> <lm>   <dbl [12]> 0.996
##  6 Australia  Oceanía    <tibble [12 × 4]> <lm>   <dbl [12]> 0.980
##  7 Austria    Europa     <tibble [12 × 4]> <lm>   <dbl [12]> 0.992
##  8 Baréin     Asia       <tibble [12 × 4]> <lm>   <dbl [12]> 0.967
##  9 Bangladesh Asia       <tibble [12 × 4]> <lm>   <dbl [12]> 0.989
## 10 Bélgica    Europa     <tibble [12 × 4]> <lm>   <dbl [12]> 0.995
## # … with 132 more rows
```

---

# Simplificando columnas-lista

- Desanidando

```r
r_cuadrado_anidado %>% 
* unnest(r_2)
```

```
## # A tibble: 142 x 6
##    pais       continente data              modelo residuos     r_2
##    <fct>      <fct>      <list>            <list> <list>     <dbl>
##  1 Afganistán Asia       <tibble [12 × 4]> <lm>   <dbl [12]> 0.948
##  2 Albania    Europa     <tibble [12 × 4]> <lm>   <dbl [12]> 0.911
##  3 Argelia    África     <tibble [12 × 4]> <lm>   <dbl [12]> 0.985
##  4 Angola     África     <tibble [12 × 4]> <lm>   <dbl [12]> 0.888
##  5 Argentina  Américas   <tibble [12 × 4]> <lm>   <dbl [12]> 0.996
##  6 Australia  Oceanía    <tibble [12 × 4]> <lm>   <dbl [12]> 0.980
##  7 Austria    Europa     <tibble [12 × 4]> <lm>   <dbl [12]> 0.992
##  8 Baréin     Asia       <tibble [12 × 4]> <lm>   <dbl [12]> 0.967
##  9 Bangladesh Asia       <tibble [12 × 4]> <lm>   <dbl [12]> 0.989
## 10 Bélgica    Europa     <tibble [12 × 4]> <lm>   <dbl [12]> 0.995
## # … with 132 more rows
```
…
