005_transformacion_datos.utf8
…
Principal operador para encadenar y facilitar la lectura del cdigo

%>% (paquete magrittr)

tibble

Por ahora las tibbles las definiremos como data frames con propiedades adicionales:

class(x = datos::vuelos)

## [1] "tbl_df"     "tbl"        "data.frame"

datos::vuelos

## # A tibble: 336,776 x 19
##     anio   mes   dia horario_salida salida_programa atraso_salida
##    <int> <int> <int>          <int>            <int>         <dbl>
##  1  2013     1     1            517              515             2
##  2  2013     1     1            533              529             4
##  3  2013     1     1            542              540             2
##  4  2013     1     1            544              545            -1
##  5  2013     1     1            554              600            -6
##  6  2013     1     1            554              558            -4
##  7  2013     1     1            555              600            -5
##  8  2013     1     1            557              600            -3
##  9  2013     1     1            557              600            -3
## 10  2013     1     1            558              600            -2
## #  with 336,766 more rows, and 13 more variables: horario_llegada <int>,
## #   llegada_programada <int>, atraso_llegada <dbl>, aerolinea <chr>,
## #   vuelo <int>, codigo_cola <chr>, origen <chr>, destino <chr>,
## #   tiempo_vuelo <dbl>, distancia <dbl>, hora <dbl>, minuto <dbl>,
## #   fecha_hora <dttm>
…
filter(data = <DATOS>, <EXPRESION QUE RETORNE UN VALOR LOGICO>)

Se requiere conocer el funcionamiento de los operadores lgicos

https://stat.ethz.ch/R-manual/R-devel/library/base/html/Logic.html

filter

filter(.data = datos::vuelos, mes == 1, dia == 1)

# Es equivalente a:
## Utilizar "," encadena las condiciones con "&"
filter(.data = datos::vuelos, mes == 1 & dia == 1)

## # A tibble: 842 x 19
##     anio   mes   dia horario_salida salida_programa atraso_salida
##    <int> <int> <int>          <int>            <int>         <dbl>
##  1  2013     1     1            517              515             2
##  2  2013     1     1            533              529             4
##  3  2013     1     1            542              540             2
##  4  2013     1     1            544              545            -1
##  5  2013     1     1            554              600            -6
##  6  2013     1     1            554              558            -4
##  7  2013     1     1            555              600            -5
##  8  2013     1     1            557              600            -3
##  9  2013     1     1            557              600            -3
## 10  2013     1     1            558              600            -2
## #  with 832 more rows, and 13 more variables: horario_llegada <int>,
## #   llegada_programada <int>, atraso_llegada <dbl>, aerolinea <chr>,
## #   vuelo <int>, codigo_cola <chr>, origen <chr>, destino <chr>,
## #   tiempo_vuelo <dbl>, distancia <dbl>, hora <dbl>, minuto <dbl>,
## #   fecha_hora <dttm>
…
select

Lenguaje para seleccionar variables

Operadores: :, !, &, |, c()

Algunas funciones auxiliares: everything(), starts_with(), ends_with()

Para ms detalles ver tidyselect: https://tidyselect.r-lib.org/index.html

select(.data = datos::vuelos, 
       !(starts_with(match = "a") | ends_with(match = "a")))

## # A tibble: 336,776 x 6
##      mes vuelo origen destino tiempo_vuelo minuto
##    <int> <int> <chr>  <chr>          <dbl>  <dbl>
##  1     1  1545 EWR    IAH              227     15
##  2     1  1714 LGA    IAH              227     29
##  3     1  1141 JFK    MIA              160     40
##  4     1   725 JFK    BQN              183     45
##  5     1   461 LGA    ATL              116      0
##  6     1  1696 EWR    ORD              150     58
##  7     1   507 EWR    FLL              158      0
##  8     1  5708 LGA    IAD               53      0
##  9     1    79 JFK    MCO              140      0
## 10     1   301 LGA    ORD              138      0
## #  with 336,766 more rows
…
Si se quiere cambiar este comportamiento consultar las opciones .before y .after

Variables creadas con el mismo nombre de variables existentes reemplazan a estas ltimas

Se pueden utilizar variables creadas en la creacin de nueva variables

mutate(.data = datos::vuelos, 
       # Convertir distancia de millas a km 
       distancia    = distancia * 1.609344,
       # Convertir tiempo de vuelo de minutos a horas
       tiempo_vuelo = tiempo_vuelo / 60,
       # Calcular velocidad media con respecto al suelo (km / hora)
       vel_suelo    = distancia / tiempo_vuelo)[, c("distancia", "tiempo_vuelo", "vel_suelo")]

## # A tibble: 336,776 x 3
##    distancia tiempo_vuelo vel_suelo
##        <dbl>        <dbl>     <dbl>
##  1     2253.        3.78       596.
##  2     2279.        3.78       602.
##  3     1753.        2.67       657.
##  4     2536.        3.05       832.
##  5     1226.        1.93       634.
##  6     1157.        2.5        463.
##  7     1714.        2.63       651.
##  8      369.        0.883      417.
##  9     1519.        2.33       651.
## 10     1180.        2.3        513.
## #  with 336,766 more rows
…
