012_datos_ordenados.utf8
…
  separate(col  = variables, 
           into = c("novedad", "diagnostico", "genero_edad")) %>% 
  # separar variables en base a una posicin
  separate(col  = genero_edad, 
           into = c("genero", "rango_edad"), 
           sep  = 1) %>% 
  # mejoras adicionales si se quiere a futuro 
  # separar el los lmites del rango de edad
  mutate(rango_edad = as_factor(rango_edad) %>% 
                  fct_recode("0_14" = "014", "15_24" = "1524", 
                             "25_34" = "2534", "35_44" = "3534", 
                             "45_54" = "4554", "55_64" = "5564", 
                             "65_mas" = "65"))

## # A tibble: 405,440 x 9
##    pais       iso2  iso3   anio novedad diagnostico genero rango_edad casos
##    <chr>      <chr> <chr> <int> <chr>   <chr>       <chr>  <fct>      <int>
##  1 Afganistn AF    AFG    1980 nuevos  fpp         h      0_14          NA
##  2 Afganistn AF    AFG    1980 nuevos  fpp         h      15_24         NA
##  3 Afganistn AF    AFG    1980 nuevos  fpp         h      25_34         NA
##  4 Afganistn AF    AFG    1980 nuevos  fpp         h      35_44         NA
##  5 Afganistn AF    AFG    1980 nuevos  fpp         h      45_54         NA
##  6 Afganistn AF    AFG    1980 nuevos  fpp         h      55_64         NA
##  7 Afganistn AF    AFG    1980 nuevos  fpp         h      65_mas        NA
##  8 Afganistn AF    AFG    1980 nuevos  fpp         m      0_14          NA
##  9 Afganistn AF    AFG    1980 nuevos  fpp         m      15_24         NA
## 10 Afganistn AF    AFG    1980 nuevos  fpp         m      25_34         NA
## #  with 405,430 more rows
…
