R para Ciencia de Datos
…
---

## 11.4 Segmentar un archivo (5)

Veamos qué pasó usando `readr::problems()`:

```r
problems(desafio)
```

```
## # A tibble: 1,000 x 5
##      row col   expected       actual   file                                     
##    <int> <chr> <chr>          <chr>    <chr>                                    
##  1  1001 y     1/0/T/F/TRUE/… 2015-01… '/Library/Frameworks/R.framework/Version…
##  2  1002 y     1/0/T/F/TRUE/… 2018-05… '/Library/Frameworks/R.framework/Version…
##  3  1003 y     1/0/T/F/TRUE/… 2015-09… '/Library/Frameworks/R.framework/Version…
##  4  1004 y     1/0/T/F/TRUE/… 2012-11… '/Library/Frameworks/R.framework/Version…
##  5  1005 y     1/0/T/F/TRUE/… 2020-01… '/Library/Frameworks/R.framework/Version…
##  6  1006 y     1/0/T/F/TRUE/… 2016-04… '/Library/Frameworks/R.framework/Version…
##  7  1007 y     1/0/T/F/TRUE/… 2011-05… '/Library/Frameworks/R.framework/Version…
##  8  1008 y     1/0/T/F/TRUE/… 2020-07… '/Library/Frameworks/R.framework/Version…
##  9  1009 y     1/0/T/F/TRUE/… 2011-04… '/Library/Frameworks/R.framework/Version…
## 10  1010 y     1/0/T/F/TRUE/… 2010-05… '/Library/Frameworks/R.framework/Version…
## # … with 990 more rows
```
…
---

## 11.5 Escribir a un archivo (2)

Alternativamente, para conservar los metadatos, podríamos almacenar nuestros datos usando las siguientes funciones:

1. `write_rds()` y `read_rds()` que "envuelven" nuestros datos e incluyen sus propiedades.

```r
write_rds(desafio, "desafio.rds")
read_rds("desafio.rds")
```

```
## # A tibble: 2,000 x 2
##    x     y    
##    <chr> <chr>
##  1 404   <NA> 
##  2 4172  <NA> 
##  3 3004  <NA> 
##  4 787   <NA> 
##  5 37    <NA> 
##  6 2332  <NA> 
##  7 2489  <NA> 
##  8 1449  <NA> 
##  9 3665  <NA> 
## 10 3863  <NA> 
## # … with 1,990 more rows
```

---

## 11.5 Escribir a un archivo (3)

2. Usando el paquete __feather__ (este formato es compatible con otros lenguajes de programación)

```r
library(feather)
write_feather(desafio, "desafio.feather")
read_feather("desafio.feather")
```

```
## # A tibble: 2,000 x 2
##    x     y    
##    <chr> <chr>
##  1 404   <NA> 
##  2 4172  <NA> 
##  3 3004  <NA> 
##  4 787   <NA> 
##  5 37    <NA> 
##  6 2332  <NA> 
##  7 2489  <NA> 
##  8 1449  <NA> 
##  9 3665  <NA> 
## 10 3863  <NA> 
## # … with 1,990 more rows
```
…
