R para Ciencia de Datos
…
```r
diamantes %>%
  dplyr::count(corte)
#> # A tibble: 5 x 2
#>   corte         n
#> * <ord>     <int>
#> 1 Regular    1610
#> 2 Bueno      4906
#> 3 Muy bueno 12082
#> 4 Premium   13791
#> 5 Ideal     21551

diamantes %>% 
  dplyr::count(ggplot2::cut_width(quilate, 0.5))
#> # A tibble: 11 x 2
#>   `cut_width(quilate, 0.5)`     n
#> * <fct>                     <int>
#> 1 [-0.25,0.25]                785
#> 2 (0.25,0.75]               29498
#> 3 (0.75,1.25]               15977
#> 4 (1.25,1.75]                5313
#> 5 (1.75,2.25]                2002
#> 6 (2.25,2.75]                 322
#> # … with 5 more rows
```
…
